<?xml version="1.0" encoding="utf-8"?>
<!-- Generator: Adobe Illustrator 21.0.0, SVG Export Plug-In . SVG Version: 6.00 Build 0)  -->
<svg version="1.1" xmlns="http://www.w3.org/2000/svg" xmlns:xlink="http://www.w3.org/1999/xlink" x="0px" y="0px" width="196px"
	 height="52px" viewBox="0 0 196 52" style="enable-background:new 0 0 196 52;" xml:space="preserve">
<style type="text/css">
	.st0{fill:#575756;}
	.st1{fill:#0058A5;}
	.st2{fill:#009667;}
	.st3{fill:#E74A0F;}
	.st4{fill:#FAB600;}
</style>
<g id="Calque_1">
	<g>
		<path class="st0" d="M47.7,41.6h-8.4l4.2-9.9L47.7,41.6z M41.5,25.8L30,51.9h5.3l2.4-5.7H50l2.4,5.7h5.4L46.4,25.8H41.5z"/>
		<rect x="166.8" y="25.9" class="st0" width="5" height="26.1"/>
		<path class="st0" d="M47.7,41.6h-8.4l4.2-9.9L47.7,41.6z M41.5,25.8L30,51.9h5.3l2.4-5.7H50l2.4,5.7h5.4L46.4,25.8H41.5z"/>
		<path class="st0" d="M105.8,25.8H101l-9.5,21.5h-12V25.8H52.7v4.6h8v21.5h5V30.4h8.7v21.5h20.3l2.4-5.7h12.3l2.4,5.7h5.4
			L105.8,25.8z M99.1,41.6l4.2-9.9l4.2,9.9H99.1z"/>
		<polygon class="st0" points="136.7,25.8 136.7,43.2 123.8,26 123.7,25.8 119,25.8 119,51.9 124,51.9 124,34.5 136.9,51.9 
			141.7,51.9 141.7,30.4 150.8,30.4 150.8,51.9 155.8,51.9 155.8,30.4 163.9,30.4 163.9,25.8 		"/>
		<rect x="166.8" y="25.9" class="st0" width="5" height="26.1"/>
		<path class="st0" d="M188.3,30.2c2.7,0,5.3,1.3,7,3.2c0.2,0.3,0.4,0.6,0.6,0.9v-1.1v0v-5.5c-2.2-1.4-4.9-2.1-7.5-2.1
			c-7.8,0-13.8,5.6-13.8,13.1c0,7.5,5.8,13.2,13.6,13.2c2.6,0,5.4-0.9,7.7-2.4v-5.7c-1.7,2.1-4.8,3.5-7.6,3.5
			c-4.7,0-8.6-3.8-8.6-8.6S183.6,30.2,188.3,30.2z"/>
		<g>
			<polygon class="st1" points="0,52 12,52 17.7,39.1 5.8,39.1 			"/>
			<polygon class="st2" points="5.8,39.1 17.7,39.1 23.5,26.1 11.6,26.1 			"/>
			<polygon class="st3" points="17.3,13.2 11.6,26.1 23.5,26.1 29.3,13.2 			"/>
			<polygon class="st4" points="23.1,0.1 17.3,13.1 29.3,13.1 35.1,0.1 			"/>
		</g>
		<path class="st0" d="M101.7,0c-6.2,0-11,4.6-11,10.5c0,5.9,4.8,10.6,11,10.6c6.1,0,10.9-4.6,10.9-10.6C112.6,4.6,107.8,0,101.7,0z
			 M101.7,18.6c-4.5,0-8.2-3.6-8.2-8.1c0-4.4,3.7-8,8.2-8c4.5,0,8.2,3.6,8.2,8C109.8,15,106.2,18.6,101.7,18.6z"/>
		<path class="st0" d="M67.2,10.6h-6.7V13h4.2v4c-1.6,1.1-3.5,1.7-5.2,1.7c-4.6,0-8.3-3.6-8.3-8.1c0-4.4,3.7-8,8.3-8
			c2.2,0,4.5,0.9,6.1,2.3L65.8,5l1.1-2.4l-0.1-0.1c-2-1.6-4.7-2.5-7.3-2.5c-6.2,0-11,4.6-11,10.5c0,5.9,4.8,10.6,10.9,10.6
			c2.7,0,5.6-1,7.8-2.7l0.1-0.1v-7.6L67.2,10.6z"/>
		<path class="st0" d="M148.4,0.1h-9.2V21h2.7v-7.2h6.5c3.8,0,6.9-3.1,6.9-6.9C155.4,3.1,152.3,0.1,148.4,0.1z M152.7,6.9
			c0,2.4-1.9,4.3-4.3,4.3h-6.5V2.6h6.5C150.8,2.6,152.7,4.5,152.7,6.9z"/>
		<path class="st0" d="M83.5,13.4c2.8-1,4.6-3.5,4.6-6.5c0-3.8-3.1-6.9-6.9-6.9H72V21h2.7v-7.2h6l4.9,7.2h3.1L83.5,13.4z M85.5,6.9
			c0,2.1-1.5,3.9-3.6,4.3c-0.3,0-0.5,0.1-0.7,0.1h-6.5V2.6h6.5C83.5,2.6,85.5,4.5,85.5,6.9z"/>
		<path class="st0" d="M131.6,0.1v12.3c0,4-2.2,6.2-6.1,6.2c-3.8,0-6.1-2.3-6.1-6.2V0.1h-2.7v12.3c0,5.5,3.3,8.7,8.9,8.7
			c5.5,0,8.8-3.3,8.8-8.7V0.1H131.6z"/>
		<polygon class="st0" points="172.1,2.6 172.1,0.1 158.8,0.1 158.8,21 172.1,21 172.1,18.5 161.5,18.5 161.5,11.6 172.1,11.6 
			172.1,9.1 161.5,9.1 161.5,2.6 		"/>
	</g>
</g>
<g id="Layer_2">
</g>
</svg>
