{
    "port": 3000,
    "NODE_ENV": "production",
    "defaultUser":{
        "name": "root",
        "password": "123"
    },
    "mailer": {
        "username": "biuro@elmecosolar.pl",
        "password": "elmeco0102"
    }
}
